{
    "key": "group_5cef78f7438c1",
    "title": "Comment Data",
    "fields": [
        {
            "key": "field_5cef7d28268f2",
            "label": "Review Title",
            "name": "review_title",
            "type": "text",
            "instructions": "",
            "required": 0,
            "conditional_logic": 0,
            "wrapper": {
                "width": "",
                "class": "",
                "id": ""
            },
            "default_value": "",
            "placeholder": "",
            "prepend": "",
            "append": "",
            "maxlength": ""
        },
        {
            "key": "field_5cef79007a2f4",
            "label": "Additional Notes",
            "name": "additional_notes",
            "type": "text",
            "instructions": "",
            "required": 0,
            "conditional_logic": 0,
            "wrapper": {
                "width": "",
                "class": "",
                "id": ""
            },
            "default_value": "",
            "placeholder": "",
            "prepend": "",
            "append": "",
            "maxlength": ""
        },
        {
            "key": "field_5cef79737a2f9",
            "label": "Ratings",
            "name": "ratings",
            "type": "group",
            "instructions": "",
            "required": 0,
            "conditional_logic": 0,
            "wrapper": {
                "width": "",
                "class": "",
                "id": ""
            },
            "layout": "block",
            "sub_fields": [
                {
                    "key": "field_5cef791e7a2f5",
                    "label": "Sustainability",
                    "name": "sustainability",
                    "type": "radio",
                    "instructions": "",
                    "required": 0,
                    "conditional_logic": 0,
                    "wrapper": {
                        "width": "",
                        "class": "",
                        "id": ""
                    },
                    "choices": {
                        "1": "Strongly Disagree",
                        "2": "Disagree",
                        "3": "Neutral",
                        "4": "Agree",
                        "5": "Strongly Agree"
                    },
                    "allow_null": 0,
                    "other_choice": 0,
                    "default_value": "",
                    "layout": "horizontal",
                    "return_format": "value",
                    "save_other_choice": 0
                },
                {
                    "key": "field_5cef79637a2f8",
                    "label": "Reliability",
                    "name": "reliability",
                    "type": "radio",
                    "instructions": "",
                    "required": 0,
                    "conditional_logic": 0,
                    "wrapper": {
                        "width": "",
                        "class": "",
                        "id": ""
                    },
                    "choices": {
                        "1": "Strongly Disagree",
                        "2": "Disagree",
                        "3": "Neutral",
                        "4": "Agree",
                        "5": "Strongly Agree"
                    },
                    "allow_null": 0,
                    "other_choice": 0,
                    "default_value": "",
                    "layout": "horizontal",
                    "return_format": "value",
                    "save_other_choice": 0
                },
                {
                    "key": "field_5cef79557a2f6",
                    "label": "Ease of Use",
                    "name": "ease_of_use",
                    "type": "radio",
                    "instructions": "",
                    "required": 0,
                    "conditional_logic": 0,
                    "wrapper": {
                        "width": "",
                        "class": "",
                        "id": ""
                    },
                    "choices": {
                        "1": "Strongly Disagree",
                        "2": "Disagree",
                        "3": "Neutral",
                        "4": "Agree",
                        "5": "Strongly Agree"
                    },
                    "allow_null": 0,
                    "other_choice": 0,
                    "default_value": "",
                    "layout": "horizontal",
                    "return_format": "value",
                    "save_other_choice": 0
                },
                {
                    "key": "field_5cef795b7a2f7",
                    "label": "Experience",
                    "name": "experience",
                    "type": "radio",
                    "instructions": "",
                    "required": 0,
                    "conditional_logic": 0,
                    "wrapper": {
                        "width": "",
                        "class": "",
                        "id": ""
                    },
                    "choices": {
                        "1": "Strongly Disagree",
                        "2": "Disagree",
                        "3": "Neutral",
                        "4": "Agree",
                        "5": "Strongly Agree"
                    },
                    "allow_null": 0,
                    "other_choice": 0,
                    "default_value": "",
                    "layout": "horizontal",
                    "return_format": "value",
                    "save_other_choice": 0
                }
            ]
        }
    ],
    "location": [
        [
            {
                "param": "comment",
                "operator": "==",
                "value": "project"
            }
        ]
    ],
    "menu_order": 0,
    "position": "normal",
    "style": "default",
    "label_placement": "top",
    "instruction_placement": "label",
    "hide_on_screen": "",
    "active": 0,
    "description": "new",
    "modified": 1562263546
}