{
    "key": "group_59c85aa96d57f",
    "title": "Current Events",
    "fields": [
        {
            "key": "field_59c85b22283bc",
            "label": "",
            "name": "current_events",
            "type": "clone",
            "instructions": "",
            "required": 0,
            "conditional_logic": 0,
            "wrapper": {
                "width": "",
                "class": "",
                "id": ""
            },
            "clone": [
                "group_59c85ae223bfc"
            ],
            "display": "seamless",
            "layout": "block",
            "prefix_label": 0,
            "prefix_name": 1
        }
    ],
    "location": [
        [
            {
                "param": "options_page",
                "operator": "==",
                "value": "event_settings"
            }
        ]
    ],
    "menu_order": 100,
    "position": "normal",
    "style": "default",
    "label_placement": "top",
    "instruction_placement": "label",
    "hide_on_screen": "",
    "active": 1,
    "description": "",
    "modified": 1506302822
}