{
    "key": "group_59c85833da6fc",
    "title": "Event Information",
    "fields": [
        {
            "key": "field_59c8583ab16fc",
            "label": "",
            "name": "link_url",
            "type": "link",
            "instructions": "",
            "required": 0,
            "conditional_logic": 0,
            "wrapper": {
                "width": "30",
                "class": "",
                "id": ""
            },
            "return_format": "array"
        },
        {
            "key": "field_5a6666352e50b",
            "label": "Start Date",
            "name": "date_start",
            "type": "date_picker",
            "instructions": "Please select the date the event will start.",
            "required": 0,
            "conditional_logic": 0,
            "wrapper": {
                "width": "35",
                "class": "",
                "id": ""
            },
            "display_format": "F j, Y",
            "return_format": "Ymd",
            "first_day": 0
        },
        {
            "key": "field_5a45b13b4611c",
            "label": "End Date",
            "name": "date_end",
            "type": "date_picker",
            "instructions": "Please select the date the event will end.",
            "required": 0,
            "conditional_logic": 0,
            "wrapper": {
                "width": "35",
                "class": "",
                "id": ""
            },
            "display_format": "F j, Y",
            "return_format": "Ymd",
            "first_day": 0
        }
    ],
    "location": [
        [
            {
                "param": "post_type",
                "operator": "==",
                "value": "event"
            }
        ]
    ],
    "menu_order": 0,
    "position": "acf_after_title",
    "style": "default",
    "label_placement": "top",
    "instruction_placement": "label",
    "hide_on_screen": "",
    "active": 1,
    "description": "",
    "modified": 1517590334
}