{
    "key": "group_59c8571a7e334",
    "title": "Feature",
    "fields": [
        {
            "key": "field_59c857243f075",
            "label": "Feature",
            "name": "event_feature_post",
            "type": "post_object",
            "instructions": "",
            "required": 0,
            "conditional_logic": 0,
            "wrapper": {
                "width": "",
                "class": "",
                "id": ""
            },
            "post_type": [
                "event"
            ],
            "taxonomy": [],
            "allow_null": 1,
            "multiple": 0,
            "return_format": "id",
            "ui": 1
        }
    ],
    "location": [
        [
            {
                "param": "options_page",
                "operator": "==",
                "value": "event_settings"
            }
        ]
    ],
    "menu_order": 0,
    "position": "normal",
    "style": "default",
    "label_placement": "top",
    "instruction_placement": "label",
    "hide_on_screen": "",
    "active": 1,
    "description": "Event",
    "modified": 1512676038
}