{
    "key": "group_5cad9da3707db",
    "title": "User Roles",
    "fields": [
        {
            "key": "field_5cad9fc560cba",
            "label": "Title",
            "name": "user_title",
            "type": "text",
            "instructions": "",
            "required": 0,
            "conditional_logic": 0,
            "wrapper": {
                "width": "",
                "class": "",
                "id": ""
            },
            "default_value": "I am a...",
            "placeholder": "",
            "prepend": "",
            "append": "",
            "maxlength": ""
        },
        {
            "key": "field_5cad9dab60cb4",
            "label": "",
            "name": "user_roles",
            "type": "repeater",
            "instructions": "",
            "required": 0,
            "conditional_logic": 0,
            "wrapper": {
                "width": "",
                "class": "",
                "id": ""
            },
            "collapsed": "",
            "min": 1,
            "max": 3,
            "layout": "block",
            "button_label": "Add Item",
            "sub_fields": [
                {
                    "key": "field_5cad9f8060cb7",
                    "label": "Image",
                    "name": "image",
                    "type": "image",
                    "instructions": "Please upload an image with dimensions of at least 200x200 pixels.",
                    "required": 0,
                    "conditional_logic": 0,
                    "wrapper": {
                        "width": "",
                        "class": "",
                        "id": ""
                    },
                    "return_format": "id",
                    "preview_size": "thumbnail",
                    "library": "all",
                    "min_width": "",
                    "min_height": "",
                    "min_size": "",
                    "max_width": "",
                    "max_height": "",
                    "max_size": "",
                    "mime_types": ""
                },
                {
                    "key": "field_5cad9df560cb5",
                    "label": "Role",
                    "name": "role",
                    "type": "text",
                    "instructions": "",
                    "required": 0,
                    "conditional_logic": 0,
                    "wrapper": {
                        "width": "50",
                        "class": "",
                        "id": ""
                    },
                    "default_value": "",
                    "placeholder": "Person with disability",
                    "prepend": "",
                    "append": "",
                    "maxlength": ""
                },
                {
                    "key": "field_5cad9e9c60cb6",
                    "label": "Colour",
                    "name": "colour",
                    "type": "radio",
                    "instructions": "",
                    "required": 0,
                    "conditional_logic": 0,
                    "wrapper": {
                        "width": "50",
                        "class": "",
                        "id": ""
                    },
                    "choices": {
                        "red": "<span class=\"hex-box hex-red\"><\/span>",
                        "teal": "<span class=\"hex-box hex-teal\"><\/span>",
                        "dark-blue": "<span class=\"hex-box hex-dark-blue\"><\/span>"
                    },
                    "allow_null": 0,
                    "other_choice": 0,
                    "default_value": "red",
                    "layout": "horizontal",
                    "return_format": "value",
                    "save_other_choice": 0
                },
                {
                    "key": "field_5cad9f9c60cb8",
                    "label": "Links",
                    "name": "links",
                    "type": "repeater",
                    "instructions": "",
                    "required": 0,
                    "conditional_logic": 0,
                    "wrapper": {
                        "width": "",
                        "class": "",
                        "id": ""
                    },
                    "collapsed": "",
                    "min": 0,
                    "max": 0,
                    "layout": "row",
                    "button_label": "Add Item",
                    "sub_fields": [
                        {
                            "key": "field_5cad9fa260cb9",
                            "label": "Link",
                            "name": "link",
                            "type": "link",
                            "instructions": "",
                            "required": 0,
                            "conditional_logic": 0,
                            "wrapper": {
                                "width": "",
                                "class": "",
                                "id": ""
                            },
                            "return_format": "array"
                        }
                    ]
                }
            ]
        }
    ],
    "location": [
        [
            {
                "param": "page_template",
                "operator": "==",
                "value": "templates\/home-v2.php"
            }
        ]
    ],
    "menu_order": 0,
    "position": "normal",
    "style": "default",
    "label_placement": "top",
    "instruction_placement": "label",
    "hide_on_screen": "",
    "active": 1,
    "description": "",
    "modified": 1555035661
}